2020-05-12 01:05:03 (-0400) DEBUG    Logging ready.
2020-05-12 01:05:03 (-0400) DEBUG    Logging ready.
2020-05-12 01:05:03 (-0400) DEBUG    Parsing args...
2020-05-12 01:05:03 (-0400) DEBUG    Parsing args...
2020-05-12 01:05:03 (-0400) DEBUG    Parsed args.
2020-05-12 01:05:03 (-0400) DEBUG    Parsed args.
2020-05-12 01:05:03 (-0400) DEBUG    Compiling...
2020-05-12 01:05:03 (-0400) DEBUG    Compiling...
