{
  "cvt_go": {
    "callee": {
      ".print": ["fmt.Println", "fmt"],
      ".stdout": ["fmt.Println", "fmt"],
      ".out": ["fmt.Println", "fmt"],
      ".io": {
        ".out": ["fmt.Println", "fmt"],
        ".stdout": ["fmt.Println", "fmt"]
      },
      ".exit": ["os.Exit", "os"],
      ".quit": ["os.Exit", "os"],
      ".go": {
        ".run": ["run", ""]
      }
    }
  }
}